<mxfile host="app.diagrams.net" modified="2021-02-26T18:16:31.015Z" agent="5.0 (X11)" etag="2Rr7v0zmTtL221BHGF9P" version="14.4.3" type="gitlab">
  <diagram id="Yt_jfdq1m5Xfe0V1eEwx" name="Page-1">
    <mxGraphModel dx="1422" dy="802" grid="1" gridSize="10" guides="1" tooltips="1" connect="1" arrows="1" fold="1" page="1" pageScale="1" pageWidth="1169" pageHeight="827" math="0" shadow="0">
      <root>
        <mxCell id="0" />
        <mxCell id="1" parent="0" />
        <mxCell id="1x_3zezj6zvSX4gS7n8P-1" value="&lt;div&gt;&lt;font style=&quot;font-size: 14px&quot;&gt;Serveur Physique&lt;/font&gt;&lt;/div&gt;&lt;div&gt;(Nos propres Racks, un VPS ou autres)&lt;br&gt;&lt;/div&gt;" style="shape=ext;double=1;rounded=0;whiteSpace=wrap;html=1;fillColor=#fff2cc;strokeColor=#d6b656;gradientColor=#ffffff;gradientDirection=north;" parent="1" vertex="1">
          <mxGeometry x="160" y="704" width="880" height="56" as="geometry" />
        </mxCell>
        <mxCell id="1x_3zezj6zvSX4gS7n8P-2" value="&lt;div style=&quot;font-size: 14px&quot;&gt;&lt;font style=&quot;font-size: 14px&quot;&gt;Couche Virtualisation&lt;br&gt;&lt;/font&gt;&lt;/div&gt;&lt;div&gt;(PROXMOX sur un Debian ou autre)&lt;br&gt;&lt;/div&gt;" style="rounded=0;whiteSpace=wrap;html=1;fillColor=#fff2cc;strokeColor=#d6b656;gradientDirection=south;gradientColor=#ffffff;" parent="1" vertex="1">
          <mxGeometry x="160" y="644" width="880" height="60" as="geometry" />
        </mxCell>
        <mxCell id="1x_3zezj6zvSX4gS7n8P-4" value="&lt;div style=&quot;font-size: 14px&quot;&gt;&lt;span style=&quot;background-color: rgb(255 , 255 , 102)&quot;&gt;&lt;font style=&quot;font-size: 14px&quot;&gt;&lt;font style=&quot;font-size: 14px&quot; color=&quot;#3333FF&quot;&gt;Notre &lt;b&gt;YUNOHOST&lt;/b&gt;&lt;/font&gt;&lt;/font&gt;&lt;/span&gt;&lt;/div&gt;&lt;div style=&quot;font-size: 14px&quot;&gt;&lt;span style=&quot;background-color: rgb(255 , 255 , 102)&quot;&gt;&lt;font style=&quot;font-size: 14px&quot;&gt;&lt;font style=&quot;font-size: 14px&quot; color=&quot;#3333FF&quot;&gt;ou autres&lt;/font&gt;&lt;/font&gt;&lt;/span&gt;&lt;/div&gt;&lt;div style=&quot;font-size: 14px&quot;&gt;&lt;span style=&quot;background-color: rgb(255 , 255 , 102)&quot;&gt;&lt;font style=&quot;font-size: 14px&quot;&gt;&lt;font style=&quot;font-size: 14px&quot; color=&quot;#3333FF&quot;&gt;Site web, Garradin,&lt;/font&gt;&lt;/font&gt;&lt;/span&gt;&lt;/div&gt;&lt;div style=&quot;font-size: 14px&quot;&gt;&lt;span style=&quot;background-color: rgb(255 , 255 , 102)&quot;&gt;&lt;font style=&quot;font-size: 14px&quot;&gt;&lt;font style=&quot;font-size: 14px&quot; color=&quot;#3333FF&quot;&gt;Mattermost,&lt;/font&gt;&lt;/font&gt;&lt;/span&gt;&lt;/div&gt;&lt;div style=&quot;font-size: 14px&quot;&gt;&lt;span style=&quot;background-color: rgb(255 , 255 , 102)&quot;&gt;&lt;font style=&quot;font-size: 14px&quot;&gt;&lt;font style=&quot;font-size: 14px&quot; color=&quot;#3333FF&quot;&gt;....&lt;br&gt;&lt;/font&gt;&lt;/font&gt;&lt;/span&gt;&lt;/div&gt;" style="rounded=0;whiteSpace=wrap;html=1;fillColor=#fff2cc;glass=0;sketch=1;shadow=1;strokeColor=#d6b656;fillStyle=hachure;" parent="1" vertex="1">
          <mxGeometry x="160" y="480" width="129.41" height="164" as="geometry" />
        </mxCell>
        <mxCell id="1x_3zezj6zvSX4gS7n8P-5" value="&lt;div style=&quot;font-size: 14px&quot;&gt;&lt;span style=&quot;background-color: rgb(255 , 255 , 204)&quot;&gt;&lt;font style=&quot;font-size: 14px&quot;&gt;Production&amp;nbsp;&lt;/font&gt;&lt;/span&gt;&lt;/div&gt;&lt;div style=&quot;font-size: 14px&quot;&gt;&lt;span style=&quot;background-color: rgb(255 , 255 , 204)&quot;&gt;&lt;font style=&quot;font-size: 14px&quot;&gt;Interne&lt;br&gt;&lt;/font&gt;&lt;/span&gt;&lt;/div&gt;&lt;div style=&quot;font-size: 14px&quot;&gt;&lt;span style=&quot;background-color: rgb(255 , 255 , 204)&quot;&gt;&lt;font style=&quot;font-size: 14px&quot;&gt;TCX&lt;br&gt;&lt;/font&gt;&lt;/span&gt;&lt;/div&gt;" style="text;html=1;strokeColor=none;fillColor=none;align=center;verticalAlign=middle;whiteSpace=wrap;rounded=0;" parent="1" vertex="1">
          <mxGeometry x="198.8235294117647" y="428.0011764705883" width="51.76470588235295" height="26.164705882352944" as="geometry" />
        </mxCell>
        <mxCell id="1x_3zezj6zvSX4gS7n8P-6" value="&lt;span style=&quot;background-color: rgb(255 , 255 , 0)&quot;&gt;&lt;font style=&quot;font-size: 14px&quot; color=&quot;#000099&quot;&gt;Test&amp;nbsp; environnement de production&lt;br&gt;&lt;/font&gt;&lt;/span&gt;&lt;div style=&quot;font-size: 14px&quot;&gt;&lt;span style=&quot;background-color: rgb(255 , 255 , 0)&quot;&gt;&lt;font style=&quot;font-size: 14px&quot; color=&quot;#000099&quot;&gt;&lt;br&gt;&lt;/font&gt;&lt;/span&gt;&lt;/div&gt;" style="rounded=0;whiteSpace=wrap;html=1;fillColor=#fff2cc;strokeColor=#d6b656;sketch=1;shadow=1;fillStyle=auto;glass=0;" parent="1" vertex="1">
          <mxGeometry x="310" y="480" width="50" height="162.49" as="geometry" />
        </mxCell>
        <mxCell id="1x_3zezj6zvSX4gS7n8P-7" value="&lt;div style=&quot;font-size: 14px&quot;&gt;&lt;span style=&quot;background-color: rgb(255 , 255 , 204)&quot;&gt;&lt;font style=&quot;font-size: 14px&quot;&gt;Tests Production&lt;br&gt;&lt;/font&gt;&lt;/span&gt;&lt;/div&gt;&lt;div style=&quot;font-size: 14px&quot;&gt;&lt;span style=&quot;background-color: rgb(255 , 255 , 204)&quot;&gt;&lt;font style=&quot;font-size: 14px&quot;&gt;TCX&lt;br&gt;&lt;/font&gt;&lt;/span&gt;&lt;/div&gt;" style="text;html=1;strokeColor=none;fillColor=none;align=center;verticalAlign=middle;whiteSpace=wrap;rounded=0;" parent="1" vertex="1">
          <mxGeometry x="309.11764705882354" y="428.0011764705883" width="51.76470588235295" height="26.164705882352944" as="geometry" />
        </mxCell>
        <mxCell id="1x_3zezj6zvSX4gS7n8P-9" value="&lt;div style=&quot;font-size: 14px&quot;&gt;&lt;span style=&quot;background-color: rgb(153 , 204 , 255)&quot;&gt;&lt;font style=&quot;font-size: 14px&quot;&gt;Machines&lt;br&gt;&lt;/font&gt;&lt;/span&gt;&lt;/div&gt;&lt;span style=&quot;background-color: rgb(153 , 204 , 255)&quot;&gt;Virtuelles&lt;/span&gt;&lt;div style=&quot;font-size: 14px&quot;&gt;&lt;span style=&quot;background-color: rgb(153 , 204 , 255)&quot;&gt;&lt;font style=&quot;font-size: 14px&quot;&gt;&lt;br&gt;&lt;/font&gt;&lt;/span&gt;&lt;/div&gt;&lt;div style=&quot;font-size: 14px&quot;&gt;&lt;span style=&quot;background-color: rgb(153 , 204 , 255)&quot;&gt;&lt;font style=&quot;font-size: 14px&quot;&gt;Permettre aux membres de faire des essais à volonté&lt;/font&gt;&lt;br&gt;&lt;/span&gt;&lt;/div&gt;" style="rounded=0;whiteSpace=wrap;html=1;fillColor=#dae8fc;strokeColor=#6c8ebf;sketch=1;shadow=1;fillStyle=cross-hatch;" parent="1" vertex="1">
          <mxGeometry x="520" y="478.49" width="120" height="164" as="geometry" />
        </mxCell>
        <mxCell id="1x_3zezj6zvSX4gS7n8P-11" value="&lt;div style=&quot;font-size: 14px&quot;&gt;&lt;span style=&quot;background-color: rgb(204 , 255 , 255)&quot;&gt;&lt;font style=&quot;font-size: 14px&quot;&gt;Bac à Sable&lt;/font&gt;&lt;/span&gt;&lt;/div&gt;&lt;div style=&quot;font-size: 14px&quot;&gt;&lt;span style=&quot;background-color: rgb(204 , 255 , 255)&quot;&gt;&lt;font style=&quot;font-size: 14px&quot;&gt;TCX&lt;br&gt;&lt;/font&gt;&lt;/span&gt;&lt;/div&gt;" style="text;html=1;align=center;verticalAlign=middle;resizable=0;points=[];autosize=1;" parent="1" vertex="1">
          <mxGeometry x="540.0005882352941" y="427.17" width="90" height="30" as="geometry" />
        </mxCell>
        <mxCell id="1x_3zezj6zvSX4gS7n8P-12" value="&lt;div&gt;&lt;span style=&quot;background-color: rgb(255 , 230 , 204)&quot;&gt;&lt;br&gt;&lt;/span&gt;&lt;/div&gt;&lt;div&gt;&lt;span style=&quot;background-color: rgb(255 , 230 , 204)&quot;&gt;&lt;font style=&quot;font-size: 14px&quot;&gt;Machines virtuelles&lt;/font&gt;&lt;br&gt;&lt;/span&gt;&lt;/div&gt;&lt;div style=&quot;font-size: 14px&quot;&gt;&lt;span style=&quot;background-color: rgb(255 , 230 , 204)&quot;&gt;&lt;font style=&quot;font-size: 14px&quot;&gt;Permettre à des utilisateurs en &quot;découverte&quot;&lt;/font&gt;&lt;/span&gt;&lt;/div&gt;&lt;div style=&quot;font-size: 14px&quot;&gt;&lt;span style=&quot;background-color: rgb(255 , 230 , 204)&quot;&gt;&lt;font style=&quot;font-size: 14px&quot;&gt;de disposer temporairement d&#39;un espace&lt;/font&gt;&lt;/span&gt;&lt;/div&gt;&lt;div style=&quot;font-size: 14px&quot;&gt;&lt;span style=&quot;background-color: rgb(255 , 230 , 204)&quot;&gt;&lt;font style=&quot;font-size: 14px&quot;&gt;(gratuit ou payant ?)&lt;br&gt;&lt;/font&gt;&lt;/span&gt;&lt;/div&gt;" style="rounded=1;whiteSpace=wrap;html=1;strokeWidth=3;fillColor=#ffe6cc;strokeColor=#d79b00;sketch=1;fillStyle=zigzag;perimeterSpacing=2;" parent="1" vertex="1">
          <mxGeometry x="677.65" y="524" width="362.35" height="118.49" as="geometry" />
        </mxCell>
        <mxCell id="1x_3zezj6zvSX4gS7n8P-15" value="&lt;div style=&quot;font-size: 14px&quot;&gt;&lt;span style=&quot;background-color: rgb(255 , 230 , 204)&quot;&gt;&lt;font style=&quot;font-size: 14px&quot;&gt;Serveurs bac à sable pour utilisateurs externes&lt;br&gt;&lt;/font&gt;&lt;/span&gt;&lt;/div&gt;&lt;span style=&quot;background-color: rgb(255 , 230 , 204)&quot;&gt;&lt;font style=&quot;font-size: 14px&quot;&gt;Remise à zéos des données chaque nuit.&lt;/font&gt;&lt;/span&gt;" style="text;html=1;align=center;verticalAlign=middle;resizable=0;points=[];autosize=1;" parent="1" vertex="1">
          <mxGeometry x="705.0017647058825" y="427.16999999999996" width="310" height="30" as="geometry" />
        </mxCell>
        <mxCell id="1x_3zezj6zvSX4gS7n8P-17" value="" style="strokeWidth=2;html=1;shape=mxgraph.flowchart.database;whiteSpace=wrap;rounded=0;shadow=1;glass=0;sketch=1;gradientColor=#ffffff;dashed=1;fillColor=#FFFFCC;" parent="1" vertex="1">
          <mxGeometry x="185.88235294117646" y="306.3982352941176" width="77.64705882352942" height="86.3435294117647" as="geometry" />
        </mxCell>
        <mxCell id="1x_3zezj6zvSX4gS7n8P-21" value="&lt;div style=&quot;font-size: 14px&quot;&gt;&lt;font style=&quot;font-size: 14px&quot;&gt;&lt;span style=&quot;background-color: rgb(204 , 255 , 204)&quot;&gt;Interface de gestion pour l&#39;accès au serveur BAS&lt;br&gt;&lt;/span&gt;&lt;/font&gt;&lt;/div&gt;" style="shape=loopLimit;whiteSpace=wrap;html=1;rounded=0;shadow=1;glass=0;sketch=1;strokeWidth=3;fillColor=#d5e8d4;fillStyle=dots;strokeColor=none;" parent="1" vertex="1">
          <mxGeometry x="680" y="484" width="360" height="40" as="geometry" />
        </mxCell>
        <mxCell id="1x_3zezj6zvSX4gS7n8P-22" value="&lt;div style=&quot;font-size: 14px&quot;&gt;&lt;span style=&quot;background-color: rgb(255 , 255 , 102)&quot;&gt;&lt;font style=&quot;font-size: 14px&quot; color=&quot;#105070&quot;&gt;Sauvegarde&lt;/font&gt;&lt;/span&gt;&lt;/div&gt;&lt;div style=&quot;font-size: 14px&quot;&gt;&lt;span style=&quot;background-color: rgb(255 , 255 , 102)&quot;&gt;&lt;font style=&quot;font-size: 14px&quot; color=&quot;#105070&quot;&gt;externe&lt;/font&gt;&lt;/span&gt;&lt;/div&gt;&lt;div style=&quot;font-size: 14px&quot;&gt;&lt;span style=&quot;background-color: rgb(255 , 255 , 102)&quot;&gt;&lt;font style=&quot;font-size: 14px&quot; color=&quot;#105070&quot;&gt;du serveur &lt;br&gt;&lt;/font&gt;&lt;/span&gt;&lt;/div&gt;&lt;div style=&quot;font-size: 14px&quot;&gt;&lt;span style=&quot;background-color: rgb(255 , 255 , 102)&quot;&gt;&lt;font style=&quot;font-size: 14px&quot; color=&quot;#105070&quot;&gt;de production&lt;br&gt;&lt;/font&gt;&lt;/span&gt;&lt;/div&gt;" style="text;html=1;align=center;verticalAlign=middle;resizable=0;points=[];autosize=1;" parent="1" vertex="1">
          <mxGeometry x="174.71" y="224" width="100" height="60" as="geometry" />
        </mxCell>
        <mxCell id="1x_3zezj6zvSX4gS7n8P-23" value="" style="shape=image;imageAspect=0;aspect=fixed;verticalLabelPosition=bottom;verticalAlign=top;rounded=0;shadow=1;glass=0;sketch=1;strokeWidth=3;fillColor=none;gradientColor=#ffffff;image=https://tricassinux.org/blog/wp-content/uploads/2020/02/cropped-Logo-2020-Tricassinux.org-32-ko-750x150-1.png;" parent="1" vertex="1">
          <mxGeometry x="40" y="40" width="520" height="104" as="geometry" />
        </mxCell>
        <mxCell id="1x_3zezj6zvSX4gS7n8P-24" value="&lt;div style=&quot;font-size: 18px&quot;&gt;&lt;font size=&quot;1&quot; color=&quot;#105070&quot;&gt;&lt;b&gt;&lt;font style=&quot;font-size: 20px&quot;&gt;Idées d&#39;un système d&#39;information pour TCX&lt;/font&gt;&lt;/b&gt;&lt;/font&gt;&lt;/div&gt;&lt;div style=&quot;font-size: 18px&quot;&gt;&lt;font color=&quot;#105070&quot;&gt;&lt;b style=&quot;font-size: 16px&quot;&gt;&lt;font style=&quot;font-size: 16px&quot;&gt;En interne et pour encourager la pratique du &lt;br&gt;&lt;/font&gt;&lt;/b&gt;&lt;/font&gt;&lt;/div&gt;&lt;div style=&quot;font-size: 18px&quot;&gt;&lt;font color=&quot;#105070&quot;&gt;&lt;b style=&quot;font-size: 16px&quot;&gt;&lt;font style=&quot;font-size: 16px&quot;&gt;Logiciel Libre et Open Source&lt;br&gt;&lt;/font&gt;&lt;/b&gt;&lt;/font&gt;&lt;/div&gt;" style="rounded=1;whiteSpace=wrap;html=1;shadow=1;glass=0;sketch=1;strokeWidth=3;gradientColor=#ffffff;fillColor=#FFFF66;" parent="1" vertex="1">
          <mxGeometry x="620" y="40" width="460" height="100" as="geometry" />
        </mxCell>
        <mxCell id="1x_3zezj6zvSX4gS7n8P-25" value="&lt;div style=&quot;font-size: 14px&quot;&gt;&lt;span style=&quot;background-color: rgb(153 , 204 , 255)&quot;&gt;&lt;font style=&quot;font-size: 14px&quot;&gt;Machines&lt;br&gt;&lt;/font&gt;&lt;/span&gt;&lt;/div&gt;&lt;div style=&quot;font-size: 14px&quot;&gt;&lt;span style=&quot;background-color: rgb(153 , 204 , 255)&quot;&gt;&lt;font style=&quot;font-size: 14px&quot;&gt;virtuelles&lt;br&gt;&lt;/font&gt;&lt;/span&gt;&lt;/div&gt;&lt;div style=&quot;font-size: 14px&quot;&gt;&lt;span style=&quot;background-color: rgb(153 , 204 , 255)&quot;&gt;&lt;font style=&quot;font-size: 14px&quot;&gt;&lt;br&gt;&lt;/font&gt;&lt;/span&gt;&lt;/div&gt;&lt;div style=&quot;font-size: 14px&quot;&gt;&lt;span style=&quot;background-color: rgb(153 , 204 , 255)&quot;&gt;Principales applications à demeure pour démos&lt;br&gt;&lt;/span&gt;&lt;/div&gt;" style="rounded=0;whiteSpace=wrap;html=1;fillColor=#dae8fc;strokeColor=#6c8ebf;sketch=1;shadow=1;fillStyle=cross-hatch;" parent="1" vertex="1">
          <mxGeometry x="390" y="478.49" width="110" height="164" as="geometry" />
        </mxCell>
        <mxCell id="1x_3zezj6zvSX4gS7n8P-26" value="&lt;div style=&quot;font-size: 14px&quot;&gt;&lt;span style=&quot;background-color: rgb(204 , 255 , 255)&quot;&gt;&lt;font style=&quot;font-size: 14px&quot;&gt;Applications&lt;/font&gt;&lt;/span&gt;&lt;/div&gt;&lt;div style=&quot;font-size: 14px&quot;&gt;&lt;span style=&quot;background-color: rgb(204 , 255 , 255)&quot;&gt;&lt;font style=&quot;font-size: 14px&quot;&gt;Démos TCX&lt;br&gt;&lt;/font&gt;&lt;/span&gt;&lt;/div&gt;" style="text;html=1;align=center;verticalAlign=middle;resizable=0;points=[];autosize=1;" parent="1" vertex="1">
          <mxGeometry x="405" y="425" width="90" height="30" as="geometry" />
        </mxCell>
        <mxCell id="rQTZve4DAmBuFeRFq4HO-1" value="Text" style="text;html=1;strokeColor=none;fillColor=none;align=center;verticalAlign=middle;whiteSpace=wrap;rounded=0;" parent="1" vertex="1">
          <mxGeometry x="560" y="490" width="40" height="20" as="geometry" />
        </mxCell>
        <mxCell id="rQTZve4DAmBuFeRFq4HO-2" value="Tricassinux.org | contact@tricassinux.org" style="text;html=1;align=center;verticalAlign=middle;resizable=0;points=[];autosize=1;" parent="1" vertex="1">
          <mxGeometry x="890" y="780" width="230" height="20" as="geometry" />
        </mxCell>
        <mxCell id="rQTZve4DAmBuFeRFq4HO-3" value="&lt;div style=&quot;font-size: 14px&quot;&gt;&lt;font style=&quot;font-size: 14px&quot;&gt;Version 01 du 26/02/2021.&lt;br&gt;&lt;/font&gt;&lt;/div&gt;&lt;div style=&quot;font-size: 14px&quot;&gt;&lt;font style=&quot;font-size: 14px&quot;&gt;Hébergé sur notre espace Gitlab &lt;br&gt;&lt;/font&gt;&lt;/div&gt;&lt;div style=&quot;font-size: 14px&quot;&gt;&lt;font style=&quot;font-size: 14px&quot;&gt; https://gitlab.com/tricassinux/main/-/tree/master/Serveur-TCX&lt;/font&gt;&lt;/div&gt;" style="text;html=1;align=center;verticalAlign=middle;resizable=0;points=[];autosize=1;" parent="1" vertex="1">
          <mxGeometry x="655" y="170" width="390" height="50" as="geometry" />
        </mxCell>
      </root>
    </mxGraphModel>
  </diagram>
</mxfile>
